%YAML 1.1
%TAG !u! tag:unity3d.com,2011:
--- !u!1001 &3340299982184276304
PrefabInstance:
  m_ObjectHideFlags: 0
  serializedVersion: 2
  m_Modification:
    m_TransformParent: {fileID: 0}
    m_Modifications:
    - target: {fileID: 8442499679148443183, guid: d5c91aca3c95bb4409a4a4e56e94f766,
        type: 3}
      propertyPath: m_Name
      value: LabChair (2)
      objectReference: {fileID: 0}
    - target: {fileID: 4860106801072895036, guid: d5c91aca3c95bb4409a4a4e56e94f766,
        type: 3}
      propertyPath: m_LocalPosition.x
      value: -2.656
      objectReference: {fileID: 0}
    - target: {fileID: 4860106801072895036, guid: d5c91aca3c95bb4409a4a4e56e94f766,
        type: 3}
      propertyPath: m_LocalPosition.y
      value: -1.7066
      objectReference: {fileID: 0}
    - target: {fileID: 4860106801072895036, guid: d5c91aca3c95bb4409a4a4e56e94f766,
        type: 3}
      propertyPath: m_LocalPosition.z
      value: -6.377
      objectReference: {fileID: 0}
    - target: {fileID: 4860106801072895036, guid: d5c91aca3c95bb4409a4a4e56e94f766,
        type: 3}
      propertyPath: m_LocalRotation.x
      value: -0
      objectReference: {fileID: 0}
    - target: {fileID: 4860106801072895036, guid: d5c91aca3c95bb4409a4a4e56e94f766,
        type: 3}
      propertyPath: m_LocalRotation.y
      value: 0.19998638
      objectReference: {fileID: 0}
    - target: {fileID: 4860106801072895036, guid: d5c91aca3c95bb4409a4a4e56e94f766,
        type: 3}
      propertyPath: m_LocalRotation.z
      value: -0
      objectReference: {fileID: 0}
    - target: {fileID: 4860106801072895036, guid: d5c91aca3c95bb4409a4a4e56e94f766,
        type: 3}
      propertyPath: m_LocalRotation.w
      value: 0.97979873
      objectReference: {fileID: 0}
    - target: {fileID: 4860106801072895036, guid: d5c91aca3c95bb4409a4a4e56e94f766,
        type: 3}
      propertyPath: m_RootOrder
      value: 0
      objectReference: {fileID: 0}
    - target: {fileID: 4860106801072895036, guid: d5c91aca3c95bb4409a4a4e56e94f766,
        type: 3}
      propertyPath: m_LocalEulerAnglesHint.x
      value: 0
      objectReference: {fileID: 0}
    - target: {fileID: 4860106801072895036, guid: d5c91aca3c95bb4409a4a4e56e94f766,
        type: 3}
      propertyPath: m_LocalEulerAnglesHint.y
      value: 23.072
      objectReference: {fileID: 0}
    - target: {fileID: 4860106801072895036, guid: d5c91aca3c95bb4409a4a4e56e94f766,
        type: 3}
      propertyPath: m_LocalEulerAnglesHint.z
      value: 0
      objectReference: {fileID: 0}
    - target: {fileID: 7860222495476691699, guid: d5c91aca3c95bb4409a4a4e56e94f766,
        type: 3}
      propertyPath: m_Materials.Array.data[1]
      value: 
      objectReference: {fileID: 2100000, guid: 268c52ab608949841bc60ad8f5fdeea1, type: 2}
    m_RemovedComponents: []
  m_SourcePrefab: {fileID: 100100000, guid: d5c91aca3c95bb4409a4a4e56e94f766, type: 3}
